…
    ## Warning: 21 parsing failures.
    ## row # A tibble: 5 x 5 col     row col                expected               actual file              expected   <int> <chr>              <chr>                  <chr>  <chr>             actual 1  1157 num_seeds_produced no trailing characters .6664  '~/Dropbox/spati… file 2  1195 num_seeds_produced no trailing characters .9858  '~/Dropbox/spati… row 3  1197 num_seeds_produced no trailing characters .5     '~/Dropbox/spati… col 4  1206 num_seeds_produced no trailing characters .25    '~/Dropbox/spati… expected 5  1208 num_seeds_produced no trailing characters .22    '~/Dropbox/spati…
    ## ... ................. ... .......................................................................... ........ .......................................................................... ...... .......................................................................... .... .......................................................................... ... .......................................................................... ... .......................................................................... ........ ..........................................................................
    ## See problems(...) for more details.

    dat <- dat %>% filter(plot_type == "L") %>% 
      mutate(plot_num = paste0("plot_", plot_num),
                   replicate = as.factor(replicate),
                   num_seeds_produced = ifelse(is.na(num_seeds_produced), 0, num_seeds_produced)) %>%
      rename(species = sp_code, seed_production = num_seeds_produced, site = plot_num) %>% select(-plot_type)

    dat

    ## # A tibble: 2,083 x 4
    ##    site     replicate species seed_production
    ##    <chr>    <fct>     <chr>             <dbl>
    ##  1 plot_740 1         AGHE                768
    ##  2 plot_740 2         AGHE               1206
    ##  3 plot_740 3         AGHE               1425
    ##  4 plot_740 4         AGHE               1864
    ##  5 plot_740 5         AGHE               1425
    ##  6 plot_740 6         AGHE                987
    ##  7 plot_741 1         AGHE               1206
    ##  8 plot_741 2         AGHE                987
    ##  9 plot_741 3         AGHE                548
    ## 10 plot_741 4         AGHE               1206
    ## # ... with 2,073 more rows
…
