…
    ## Warning: 21 parsing failures.
    ## row # A tibble: 5 x 5 col     row col                expected               actual file              expected   <int> <chr>              <chr>                  <chr>  <chr>             actual 1  1157 num_seeds_produced no trailing characters .6664  '../data/perform… file 2  1195 num_seeds_produced no trailing characters .9858  '../data/perform… row 3  1197 num_seeds_produced no trailing characters .5     '../data/perform… col 4  1206 num_seeds_produced no trailing characters .25    '../data/perform… expected 5  1208 num_seeds_produced no trailing characters .22    '../data/perform…
    ## ... ................. ... .......................................................................... ........ .......................................................................... ...... .......................................................................... .... .......................................................................... ... .......................................................................... ... .......................................................................... ........ ..........................................................................
    ## See problems(...) for more details.

    dat <- dat %>% filter(plot_type == "L") %>% 
      mutate(plot_num = paste0("plot_", plot_num),
                   replicate = as.factor(replicate),
                   num_seeds_produced = ifelse(is.na(num_seeds_produced), 0, num_seeds_produced)) %>%
      rename(species = sp_code, seed_production = num_seeds_produced, site = plot_num) %>% select(-plot_type)

    dat

    ## # A tibble: 2,083 x 4
    ##    site     replicate species seed_production
    ##    <chr>    <fct>     <chr>             <dbl>
    ##  1 plot_740 1         AGHE                768
    ##  2 plot_740 2         AGHE               1206
    ##  3 plot_740 3         AGHE               1425
    ##  4 plot_740 4         AGHE               1864
    ##  5 plot_740 5         AGHE               1425
    ##  6 plot_740 6         AGHE                987
    ##  7 plot_741 1         AGHE               1206
    ##  8 plot_741 2         AGHE                987
    ##  9 plot_741 3         AGHE                548
    ## 10 plot_741 4         AGHE               1206
    ## # ... with 2,073 more rows
…
    # Scale by species
    # Define a custom function to scale
    scale_this <- function(x) as.vector(scale(x))

    dat_scaled <- dat %>% tidyr::spread(species, seed_production) %>% 
      mutate_if(is.numeric, scale_this) %>% 
      unite(id, c("site", "replicate"), sep = "XX") %>%
      tidyr::gather("species", "seed_production",2:18) %>% 
      separate(id, c("site", "replicate"), sep = "XX")

    dat_scaled

    ## # A tibble: 2,482 x 4
    ##    site     replicate species seed_production
    ##    <chr>    <chr>     <chr>             <dbl>
    ##  1 plot_740 1         AGHE              0.278
    ##  2 plot_740 2         AGHE              1.07 
    ##  3 plot_740 3         AGHE              1.47 
    ##  4 plot_740 4         AGHE              2.27 
    ##  5 plot_740 5         AGHE              1.47 
    ##  6 plot_740 6         AGHE              0.675
    ##  7 plot_741 1         AGHE              1.07 
    ##  8 plot_741 2         AGHE              0.675
    ##  9 plot_741 3         AGHE             -0.121
    ## 10 plot_741 4         AGHE              1.07 
    ## # ... with 2,472 more rows
…
    # Scale by species
    # Define a custom function to scale
    prop_this <- function(x) as.vector(x/(max(x, na.rm = T)))

    dat_prop <- dat %>% tidyr::spread(species, seed_production) %>% 
      mutate_if(is.numeric, prop_this) %>% 
      unite(id, c("site", "replicate"), sep = "XX") %>%
      tidyr::gather("species", "seed_production",2:18) %>% 
      separate(id, c("site", "replicate"), sep = "XX")

    dat_prop

    ## # A tibble: 2,482 x 4
    ##    site     replicate species seed_production
    ##    <chr>    <chr>     <chr>             <dbl>
    ##  1 plot_740 1         AGHE              0.269
    ##  2 plot_740 2         AGHE              0.423
    ##  3 plot_740 3         AGHE              0.500
    ##  4 plot_740 4         AGHE              0.654
    ##  5 plot_740 5         AGHE              0.500
    ##  6 plot_740 6         AGHE              0.346
    ##  7 plot_741 1         AGHE              0.423
    ##  8 plot_741 2         AGHE              0.346
    ##  9 plot_741 3         AGHE              0.192
    ## 10 plot_741 4         AGHE              0.423
    ## # ... with 2,472 more rows
…
